EESchema Schematic File Version 2
LIBS:flightController-rescue
LIBS:power
LIBS:device
LIBS:transistors
LIBS:conn
LIBS:linear
LIBS:regul
LIBS:74xx
LIBS:cmos4000
LIBS:adc-dac
LIBS:memory
LIBS:xilinx
LIBS:microcontrollers
LIBS:dsp
LIBS:microchip
LIBS:analog_switches
LIBS:motorola
LIBS:texas
LIBS:intel
LIBS:audio
LIBS:interface
LIBS:digital-audio
LIBS:philips
LIBS:display
LIBS:cypress
LIBS:siliconi
LIBS:opto
LIBS:atmel
LIBS:contrib
LIBS:valves
LIBS:arduino
LIBS:atmega328
LIBS:ch34x
LIBS:tba_libs
LIBS:flightController-cache
EELAYER 25 0
EELAYER END
$Descr A4 11693 8268
encoding utf-8
Sheet 1 2
Title "Red Baron Flight Controller"
Date "2018-01-04"
Rev "1"
Comp ""
Comment1 ""
Comment2 ""
Comment3 ""
Comment4 ""
$EndDescr
$Comp
L Crystal Y1
U 1 1 5A0E1455
P 5350 3300
F 0 "Y1" V 5304 3431 50  0000 L CNN
F 1 "16MHz" V 5395 3431 50  0000 L CNN
F 2 "" H 5350 3300 50  0001 C CNN
F 3 "" H 5350 3300 50  0001 C CNN
	1    5350 3300
	0    -1   1    0   
$EndComp
$Comp
L GND #PWR13
U 1 1 5A0E1735
P 5950 3600
F 0 "#PWR13" H 5950 3350 50  0001 C CNN
F 1 "GND" H 5955 3427 50  0000 C CNN
F 2 "" H 5950 3600 50  0001 C CNN
F 3 "" H 5950 3600 50  0001 C CNN
	1    5950 3600
	-1   0    0    -1  
$EndComp
$Comp
L Conn_01x03 J1
U 1 1 5A0E1F2E
P 6500 1050
F 0 "J1" V 6466 862 50  0000 R CNN
F 1 "ESC_1" V 6650 1200 50  0000 R CNN
F 2 "" H 6500 1050 50  0001 C CNN
F 3 "" H 6500 1050 50  0001 C CNN
	1    6500 1050
	0    -1   -1   0   
$EndComp
$Comp
L Conn_01x03 J2
U 1 1 5A0E2248
P 7200 1050
F 0 "J2" V 7166 862 50  0000 R CNN
F 1 "ESC_2" V 7350 1200 50  0000 R CNN
F 2 "" H 7200 1050 50  0001 C CNN
F 3 "" H 7200 1050 50  0001 C CNN
	1    7200 1050
	0    -1   -1   0   
$EndComp
$Comp
L Conn_01x03 J3
U 1 1 5A0E2280
P 7950 1050
F 0 "J3" V 7916 862 50  0000 R CNN
F 1 "ESC_3" V 8100 1200 50  0000 R CNN
F 2 "" H 7950 1050 50  0001 C CNN
F 3 "" H 7950 1050 50  0001 C CNN
	1    7950 1050
	0    -1   -1   0   
$EndComp
$Comp
L Conn_01x03 J5
U 1 1 5A0E22C0
P 8750 1050
F 0 "J5" V 8716 862 50  0000 R CNN
F 1 "ESC_4" V 8900 1200 50  0000 R CNN
F 2 "" H 8750 1050 50  0001 C CNN
F 3 "" H 8750 1050 50  0001 C CNN
	1    8750 1050
	0    -1   -1   0   
$EndComp
$Comp
L GND #PWR14
U 1 1 5A0E2573
P 6400 1250
F 0 "#PWR14" H 6400 1000 50  0001 C CNN
F 1 "GND" H 6405 1077 50  0000 C CNN
F 2 "" H 6400 1250 50  0001 C CNN
F 3 "" H 6400 1250 50  0001 C CNN
	1    6400 1250
	1    0    0    -1  
$EndComp
$Comp
L VCC #PWR17
U 1 1 5A0E2622
P 6500 1250
F 0 "#PWR17" H 6500 1100 50  0001 C CNN
F 1 "VCC" H 6500 1500 50  0000 C CNN
F 2 "" H 6500 1250 50  0001 C CNN
F 3 "" H 6500 1250 50  0001 C CNN
	1    6500 1250
	-1   0    0    1   
$EndComp
$Comp
L GND #PWR18
U 1 1 5A0E2740
P 7100 1250
F 0 "#PWR18" H 7100 1000 50  0001 C CNN
F 1 "GND" H 7105 1077 50  0000 C CNN
F 2 "" H 7100 1250 50  0001 C CNN
F 3 "" H 7100 1250 50  0001 C CNN
	1    7100 1250
	1    0    0    -1  
$EndComp
$Comp
L VCC #PWR19
U 1 1 5A0E2747
P 7200 1250
F 0 "#PWR19" H 7200 1100 50  0001 C CNN
F 1 "VCC" H 7200 1500 50  0000 C CNN
F 2 "" H 7200 1250 50  0001 C CNN
F 3 "" H 7200 1250 50  0001 C CNN
	1    7200 1250
	-1   0    0    1   
$EndComp
$Comp
L GND #PWR20
U 1 1 5A0E2762
P 7850 1250
F 0 "#PWR20" H 7850 1000 50  0001 C CNN
F 1 "GND" H 7855 1077 50  0000 C CNN
F 2 "" H 7850 1250 50  0001 C CNN
F 3 "" H 7850 1250 50  0001 C CNN
	1    7850 1250
	1    0    0    -1  
$EndComp
$Comp
L VCC #PWR21
U 1 1 5A0E2769
P 7950 1250
F 0 "#PWR21" H 7950 1100 50  0001 C CNN
F 1 "VCC" H 7950 1500 50  0000 C CNN
F 2 "" H 7950 1250 50  0001 C CNN
F 3 "" H 7950 1250 50  0001 C CNN
	1    7950 1250
	-1   0    0    1   
$EndComp
$Comp
L GND #PWR28
U 1 1 5A0E27C0
P 8650 1250
F 0 "#PWR28" H 8650 1000 50  0001 C CNN
F 1 "GND" H 8655 1077 50  0000 C CNN
F 2 "" H 8650 1250 50  0001 C CNN
F 3 "" H 8650 1250 50  0001 C CNN
	1    8650 1250
	1    0    0    -1  
$EndComp
$Comp
L VCC #PWR29
U 1 1 5A0E27C7
P 8750 1250
F 0 "#PWR29" H 8750 1100 50  0001 C CNN
F 1 "VCC" H 8750 1500 50  0000 C CNN
F 2 "" H 8750 1250 50  0001 C CNN
F 3 "" H 8750 1250 50  0001 C CNN
	1    8750 1250
	-1   0    0    1   
$EndComp
$Comp
L R R3
U 1 1 5A0F5702
P 4200 3950
F 0 "R3" V 4250 4050 50  0000 L CNN
F 1 "10K" V 4200 3900 50  0000 L CNN
F 2 "" V 4130 3950 50  0001 C CNN
F 3 "" H 4200 3950 50  0001 C CNN
	1    4200 3950
	0    1    -1   0   
$EndComp
$Comp
L VCC #PWR8
U 1 1 5A0F5782
P 4400 3950
F 0 "#PWR8" H 4400 3800 50  0001 C CNN
F 1 "VCC" H 4417 4123 50  0000 C CNN
F 2 "" H 4400 3950 50  0001 C CNN
F 3 "" H 4400 3950 50  0001 C CNN
	1    4400 3950
	0    1    -1   0   
$EndComp
$Comp
L +BATT #PWR11
U 1 1 5A0F58D7
P 5750 6500
F 0 "#PWR11" H 5750 6350 50  0001 C CNN
F 1 "+BATT" H 5765 6673 50  0000 C CNN
F 2 "" H 5750 6500 50  0001 C CNN
F 3 "" H 5750 6500 50  0001 C CNN
	1    5750 6500
	1    0    0    -1  
$EndComp
$Comp
L GND #PWR12
U 1 1 5A0F5920
P 5750 7500
F 0 "#PWR12" H 5750 7250 50  0001 C CNN
F 1 "GND" H 5755 7327 50  0000 C CNN
F 2 "" H 5750 7500 50  0001 C CNN
F 3 "" H 5750 7500 50  0001 C CNN
	1    5750 7500
	1    0    0    -1  
$EndComp
$Comp
L R R1
U 1 1 5A0F59A8
P 5750 6750
F 0 "R1" H 5820 6796 50  0000 L CNN
F 1 "R" H 5820 6705 50  0000 L CNN
F 2 "" V 5680 6750 50  0001 C CNN
F 3 "" H 5750 6750 50  0001 C CNN
	1    5750 6750
	1    0    0    -1  
$EndComp
$Comp
L R R2
U 1 1 5A0F5A04
P 5750 7250
F 0 "R2" H 5820 7296 50  0000 L CNN
F 1 "R" H 5820 7205 50  0000 L CNN
F 2 "" V 5680 7250 50  0001 C CNN
F 3 "" H 5750 7250 50  0001 C CNN
	1    5750 7250
	1    0    0    -1  
$EndComp
Text Label 5050 7000 0    60   ~ 0
BATT_SENSE
Text Label 850  3850 0    60   ~ 0
BATT_SENSE
$Comp
L VCC #PWR15
U 1 1 5A0F63C3
P 6400 6550
F 0 "#PWR15" H 6400 6400 50  0001 C CNN
F 1 "VCC" H 6417 6723 50  0000 C CNN
F 2 "" H 6400 6550 50  0001 C CNN
F 3 "" H 6400 6550 50  0001 C CNN
	1    6400 6550
	1    0    0    -1  
$EndComp
$Comp
L R R4
U 1 1 5A0F6462
P 6400 6800
F 0 "R4" H 6470 6846 50  0000 L CNN
F 1 "R" H 6470 6755 50  0000 L CNN
F 2 "" V 6330 6800 50  0001 C CNN
F 3 "" H 6400 6800 50  0001 C CNN
	1    6400 6800
	1    0    0    -1  
$EndComp
$Comp
L LED D1
U 1 1 5A0F6574
P 6400 7250
F 0 "D1" V 6438 7133 50  0000 R CNN
F 1 "LED" V 6347 7133 50  0000 R CNN
F 2 "" H 6400 7250 50  0001 C CNN
F 3 "" H 6400 7250 50  0001 C CNN
	1    6400 7250
	0    -1   -1   0   
$EndComp
$Comp
L GND #PWR16
U 1 1 5A0F6628
P 6400 7500
F 0 "#PWR16" H 6400 7250 50  0001 C CNN
F 1 "GND" H 6405 7327 50  0000 C CNN
F 2 "" H 6400 7500 50  0001 C CNN
F 3 "" H 6400 7500 50  0001 C CNN
	1    6400 7500
	1    0    0    -1  
$EndComp
$Comp
L AVR-ISP-6 CON1
U 1 1 5A0F7147
P 10250 6050
F 0 "CON1" H 10250 5800 50  0000 C CNN
F 1 "AVR-ISP-6" H 10237 6324 50  0000 C CNN
F 2 "AVR-ISP-6" V 9730 6090 50  0001 C CNN
F 3 "" H 10225 6050 50  0001 C CNN
	1    10250 6050
	1    0    0    -1  
$EndComp
$Comp
L CONN_2 P1
U 1 1 5A1DE764
P 10500 1350
F 0 "P1" H 10627 1378 40  0000 L CNN
F 1 "CONN_2" H 10627 1302 40  0000 L CNN
F 2 "" H 10500 1350 60  0001 C CNN
F 3 "" H 10500 1350 60  0001 C CNN
	1    10500 1350
	1    0    0    -1  
$EndComp
Text Notes 10400 1100 0    60   ~ 0
3V3
$Comp
L CONN_2 P2
U 1 1 5A1DEDD4
P 10500 2150
F 0 "P2" H 10627 2178 40  0000 L CNN
F 1 "CONN_2" H 10627 2102 40  0000 L CNN
F 2 "" H 10500 2150 60  0001 C CNN
F 3 "" H 10500 2150 60  0001 C CNN
	1    10500 2150
	1    0    0    -1  
$EndComp
$Comp
L CONN_2 P3
U 1 1 5A1DEE3E
P 10500 2900
F 0 "P3" H 10627 2928 40  0000 L CNN
F 1 "CONN_2" H 10627 2852 40  0000 L CNN
F 2 "" H 10500 2900 60  0001 C CNN
F 3 "" H 10500 2900 60  0001 C CNN
	1    10500 2900
	1    0    0    -1  
$EndComp
Text Notes 10400 1950 0    60   ~ 0
3V3
Text Notes 10400 2700 0    60   ~ 0
5V
$Comp
L CONN_2 P4
U 1 1 5A1DEF52
P 10500 3700
F 0 "P4" H 10627 3728 40  0000 L CNN
F 1 "CONN_2" H 10627 3652 40  0000 L CNN
F 2 "" H 10500 3700 60  0001 C CNN
F 3 "" H 10500 3700 60  0001 C CNN
	1    10500 3700
	1    0    0    -1  
$EndComp
Text Notes 10400 3500 0    60   ~ 0
5V
$Comp
L LM1117-3.3-RESCUE-flightController U2
U 1 1 5A1E341C
P 2600 6750
F 0 "U2" H 2600 6992 50  0000 C CNN
F 1 "LM1117-3.3" H 2600 7150 50  0000 C CNN
F 2 "" H 2600 6750 50  0001 C CNN
F 3 "" H 2600 6750 50  0001 C CNN
	1    2600 6750
	1    0    0    -1  
$EndComp
$Comp
L Buzzer BZ1
U 1 1 5A1F2598
P 1050 6850
F 0 "BZ1" H 1050 7050 50  0000 L CNN
F 1 "Buzzer" H 1050 6650 50  0000 L CNN
F 2 "" V 1025 6950 50  0001 C CNN
F 3 "" V 1025 6950 50  0001 C CNN
	1    1050 6850
	1    0    0    -1  
$EndComp
$Comp
L C_Small C1
U 1 1 5A1F981C
P 5600 3100
F 0 "C1" H 5450 3200 50  0000 L CNN
F 1 "22pF" V 5550 2850 50  0000 L CNN
F 2 "" H 5600 3100 50  0001 C CNN
F 3 "" H 5600 3100 50  0001 C CNN
	1    5600 3100
	0    -1   1    0   
$EndComp
$Comp
L C_Small C2
U 1 1 5A1F9B41
P 5600 3500
F 0 "C2" H 5450 3600 50  0000 L CNN
F 1 "22pF" V 5550 3250 50  0000 L CNN
F 2 "" H 5600 3500 50  0001 C CNN
F 3 "" H 5600 3500 50  0001 C CNN
	1    5600 3500
	0    -1   1    0   
$EndComp
$Sheet
S 4750 3900 950  600 
U 5A1FA801
F0 "usb_interface" 60
F1 "usb_interface.sch" 60
F2 "TX" I L 4750 4100 60 
F3 "RX" O L 4750 4200 60 
F4 "DTR" O L 4750 4300 60 
$EndSheet
$Comp
L ATMEGA328P-A IC1
U 1 1 5A2AA02A
P 2400 3600
F 0 "IC1" H 1650 4850 50  0000 L BNN
F 1 "ATMEGA328P-A" H 2800 2200 50  0000 L BNN
F 2 "TQFP32" H 2400 3600 50  0000 C CIN
F 3 "" H 2400 3600 50  0000 C CNN
	1    2400 3600
	1    0    0    -1  
$EndComp
$Comp
L GND #PWR4
U 1 1 5A2ACD23
P 1400 4950
F 0 "#PWR4" H 1400 4700 50  0001 C CNN
F 1 "GND" H 1405 4777 50  0000 C CNN
F 2 "" H 1400 4950 50  0001 C CNN
F 3 "" H 1400 4950 50  0001 C CNN
	1    1400 4950
	-1   0    0    -1  
$EndComp
$Comp
L VCC #PWR3
U 1 1 5A2AD080
P 1350 2400
F 0 "#PWR3" H 1350 2250 50  0001 C CNN
F 1 "VCC" H 1367 2573 50  0000 C CNN
F 2 "" H 1350 2400 50  0001 C CNN
F 3 "" H 1350 2400 50  0001 C CNN
	1    1350 2400
	1    0    0    -1  
$EndComp
$Comp
L GY-91 U1
U 1 1 5A2B1EB4
P 4950 2500
F 0 "U1" H 5050 2950 60  0000 C CNN
F 1 "GY-91" H 4800 2850 60  0000 C CNN
F 2 "" H 5050 2500 60  0001 C CNN
F 3 "" H 5050 2500 60  0001 C CNN
	1    4950 2500
	1    0    0    -1  
$EndComp
$Comp
L VCC #PWR9
U 1 1 5A2B3AD4
P 5550 2200
F 0 "#PWR9" H 5550 2050 50  0001 C CNN
F 1 "VCC" H 5567 2373 50  0000 C CNN
F 2 "" H 5550 2200 50  0001 C CNN
F 3 "" H 5550 2200 50  0001 C CNN
	1    5550 2200
	1    0    0    -1  
$EndComp
$Comp
L GND #PWR10
U 1 1 5A2B3F5A
P 5550 2700
F 0 "#PWR10" H 5550 2450 50  0001 C CNN
F 1 "GND" H 5555 2527 50  0000 C CNN
F 2 "" H 5550 2700 50  0001 C CNN
F 3 "" H 5550 2700 50  0001 C CNN
	1    5550 2700
	0    -1   -1   0   
$EndComp
Text Label 6600 1350 0    60   ~ 0
E1
Text Label 7300 1350 0    60   ~ 0
E2
Text Label 8050 1350 0    60   ~ 0
E3
Text Label 8850 1350 0    60   ~ 0
E4
Text Label 3550 4600 0    60   ~ 0
E1
Text Label 3550 4700 0    60   ~ 0
E2
Text Label 3550 4800 0    60   ~ 0
E3
Text Label 3500 2500 0    60   ~ 0
E4
Text Notes 6200 750  0    99   ~ 20
Electronic Speed Controllers
$Comp
L Conn_01x01 J6
U 1 1 5A4AABA1
P 3950 7250
F 0 "J6" H 3950 7350 50  0000 C CNN
F 1 "Mount_1" H 3950 7150 50  0000 C CNN
F 2 "" H 3950 7250 50  0001 C CNN
F 3 "" H 3950 7250 50  0001 C CNN
	1    3950 7250
	1    0    0    -1  
$EndComp
NoConn ~ 3750 7250
$Comp
L Conn_01x01 J8
U 1 1 5A4AAD51
P 3950 7550
F 0 "J8" H 3950 7650 50  0000 C CNN
F 1 "Mount_3" H 3950 7450 50  0000 C CNN
F 2 "" H 3950 7550 50  0001 C CNN
F 3 "" H 3950 7550 50  0001 C CNN
	1    3950 7550
	1    0    0    -1  
$EndComp
$Comp
L Conn_01x01 J10
U 1 1 5A4AAE88
P 4550 7250
F 0 "J10" H 4550 7350 50  0000 C CNN
F 1 "Mount_2" H 4550 7150 50  0000 C CNN
F 2 "" H 4550 7250 50  0001 C CNN
F 3 "" H 4550 7250 50  0001 C CNN
	1    4550 7250
	1    0    0    -1  
$EndComp
$Comp
L Conn_01x01 J11
U 1 1 5A4AAF2A
P 4550 7550
F 0 "J11" H 4550 7650 50  0000 C CNN
F 1 "Mount_4" H 4550 7450 50  0000 C CNN
F 2 "" H 4550 7550 50  0001 C CNN
F 3 "" H 4550 7550 50  0001 C CNN
	1    4550 7550
	1    0    0    -1  
$EndComp
NoConn ~ 4350 7250
NoConn ~ 4350 7550
NoConn ~ 3750 7550
Text Notes 3650 6700 0    60   ~ 0
Mounting holes
$Comp
L CONN_2 P5
U 1 1 5A4B66A6
P 8400 2250
F 0 "P5" V 8350 2250 40  0000 C CNN
F 1 "CONN_2" V 8450 2250 40  0000 C CNN
F 2 "" H 8400 2250 60  0001 C CNN
F 3 "" H 8400 2250 60  0001 C CNN
	1    8400 2250
	1    0    0    -1  
$EndComp
$Comp
L CONN_2 P6
U 1 1 5A4B6849
P 8400 2700
F 0 "P6" V 8350 2700 40  0000 C CNN
F 1 "CONN_2" V 8450 2700 40  0000 C CNN
F 2 "" H 8400 2700 60  0001 C CNN
F 3 "" H 8400 2700 60  0001 C CNN
	1    8400 2700
	1    0    0    -1  
$EndComp
$Comp
L CONN_2 P7
U 1 1 5A4B68DE
P 8400 3150
F 0 "P7" V 8350 3150 40  0000 C CNN
F 1 "CONN_2" V 8450 3150 40  0000 C CNN
F 2 "" H 8400 3150 60  0001 C CNN
F 3 "" H 8400 3150 60  0001 C CNN
	1    8400 3150
	1    0    0    -1  
$EndComp
$Comp
L CONN_2 P8
U 1 1 5A4B696E
P 8400 3600
F 0 "P8" V 8350 3600 40  0000 C CNN
F 1 "CONN_2" V 8450 3600 40  0000 C CNN
F 2 "" H 8400 3600 60  0001 C CNN
F 3 "" H 8400 3600 60  0001 C CNN
	1    8400 3600
	1    0    0    -1  
$EndComp
$Comp
L CONN_2 P9
U 1 1 5A4B6A01
P 8400 4000
F 0 "P9" V 8350 4000 40  0000 C CNN
F 1 "CONN_2" V 8450 4000 40  0000 C CNN
F 2 "" H 8400 4000 60  0001 C CNN
F 3 "" H 8400 4000 60  0001 C CNN
	1    8400 4000
	1    0    0    -1  
$EndComp
$Comp
L CONN_2 P10
U 1 1 5A4B6A97
P 8400 4450
F 0 "P10" V 8350 4450 40  0000 C CNN
F 1 "CONN_2" V 8450 4450 40  0000 C CNN
F 2 "" H 8400 4450 60  0001 C CNN
F 3 "" H 8400 4450 60  0001 C CNN
	1    8400 4450
	1    0    0    -1  
$EndComp
Text Notes 7300 1900 0    99   ~ 20
PWM / PPM in
$Comp
L GND #PWR22
U 1 1 5A4B74D4
P 7950 2350
F 0 "#PWR22" H 7950 2100 50  0001 C CNN
F 1 "GND" H 7955 2177 50  0000 C CNN
F 2 "" H 7950 2350 50  0001 C CNN
F 3 "" H 7950 2350 50  0001 C CNN
	1    7950 2350
	0    1    1    0   
$EndComp
$Comp
L GND #PWR23
U 1 1 5A4B75FA
P 7950 2800
F 0 "#PWR23" H 7950 2550 50  0001 C CNN
F 1 "GND" H 7955 2627 50  0000 C CNN
F 2 "" H 7950 2800 50  0001 C CNN
F 3 "" H 7950 2800 50  0001 C CNN
	1    7950 2800
	0    1    1    0   
$EndComp
$Comp
L GND #PWR24
U 1 1 5A4B7680
P 7950 3250
F 0 "#PWR24" H 7950 3000 50  0001 C CNN
F 1 "GND" H 7955 3077 50  0000 C CNN
F 2 "" H 7950 3250 50  0001 C CNN
F 3 "" H 7950 3250 50  0001 C CNN
	1    7950 3250
	0    1    1    0   
$EndComp
$Comp
L GND #PWR25
U 1 1 5A4B7706
P 7950 3700
F 0 "#PWR25" H 7950 3450 50  0001 C CNN
F 1 "GND" H 7955 3527 50  0000 C CNN
F 2 "" H 7950 3700 50  0001 C CNN
F 3 "" H 7950 3700 50  0001 C CNN
	1    7950 3700
	0    1    1    0   
$EndComp
$Comp
L GND #PWR26
U 1 1 5A4B778C
P 7950 4100
F 0 "#PWR26" H 7950 3850 50  0001 C CNN
F 1 "GND" H 7955 3927 50  0000 C CNN
F 2 "" H 7950 4100 50  0001 C CNN
F 3 "" H 7950 4100 50  0001 C CNN
	1    7950 4100
	0    1    1    0   
$EndComp
$Comp
L GND #PWR27
U 1 1 5A4B7812
P 7950 4550
F 0 "#PWR27" H 7950 4300 50  0001 C CNN
F 1 "GND" H 7955 4377 50  0000 C CNN
F 2 "" H 7950 4550 50  0001 C CNN
F 3 "" H 7950 4550 50  0001 C CNN
	1    7950 4550
	0    1    1    0   
$EndComp
Text Label 7550 2150 0    60   ~ 0
THROTTLE
Text Label 7550 2600 0    60   ~ 0
ROLL
Text Label 7550 3050 0    60   ~ 0
PITCH
Text Label 7550 3500 0    60   ~ 0
YAW
Text Label 7550 3900 0    60   ~ 0
AUX1
Text Label 7550 4350 0    60   ~ 0
AUX2
Text Label 3450 4300 0    60   ~ 0
THROTTLE
Text Label 3450 4400 0    60   ~ 0
ROLL
Text Label 3450 4500 0    60   ~ 0
PITCH
Text Notes 8550 2250 0    60   ~ 0
PPM (BUS)
$Comp
L GND #PWR6
U 1 1 5A4E533E
P 2600 7300
F 0 "#PWR6" H 2600 7050 50  0001 C CNN
F 1 "GND" H 2605 7127 50  0000 C CNN
F 2 "" H 2600 7300 50  0001 C CNN
F 3 "" H 2600 7300 50  0001 C CNN
	1    2600 7300
	-1   0    0    -1  
$EndComp
$Comp
L C_Small C6
U 1 1 5A4E5500
P 1900 7000
F 0 "C6" H 1910 7070 50  0000 L CNN
F 1 "C_Small" H 1910 6920 50  0000 L CNN
F 2 "" H 1900 7000 50  0001 C CNN
F 3 "" H 1900 7000 50  0001 C CNN
	1    1900 7000
	1    0    0    -1  
$EndComp
$Comp
L C_Small C7
U 1 1 5A4E55BD
P 3050 7050
F 0 "C7" H 3060 7120 50  0000 L CNN
F 1 "C_Small" H 3060 6970 50  0000 L CNN
F 2 "" H 3050 7050 50  0001 C CNN
F 3 "" H 3050 7050 50  0001 C CNN
	1    3050 7050
	1    0    0    -1  
$EndComp
$Comp
L VCC #PWR5
U 1 1 5A4E656D
P 1650 6650
F 0 "#PWR5" H 1650 6500 50  0001 C CNN
F 1 "VCC" H 1667 6823 50  0000 C CNN
F 2 "" H 1650 6650 50  0001 C CNN
F 3 "" H 1650 6650 50  0001 C CNN
	1    1650 6650
	1    0    0    -1  
$EndComp
$Comp
L +3V3 #PWR7
U 1 1 5A4E7074
P 3300 6650
F 0 "#PWR7" H 3300 6500 50  0001 C CNN
F 1 "+3V3" H 3300 6790 50  0000 C CNN
F 2 "" H 3300 6650 50  0001 C CNN
F 3 "" H 3300 6650 50  0001 C CNN
	1    3300 6650
	1    0    0    -1  
$EndComp
$Comp
L +3V3 #PWR2
U 1 1 5A4E79DA
P 1200 3050
F 0 "#PWR2" H 1200 2900 50  0001 C CNN
F 1 "+3V3" H 1200 3190 50  0000 C CNN
F 2 "" H 1200 3050 50  0001 C CNN
F 3 "" H 1200 3050 50  0001 C CNN
	1    1200 3050
	1    0    0    -1  
$EndComp
Text Notes 1550 6250 0    60   ~ 0
3V3 Camera Supply
NoConn ~ 1500 3950
Text Notes 4950 6250 0    60   ~ 0
LiPo Batt. Monitor
Text Notes 6200 6250 0    60   ~ 0
PWR Indicator
Text Notes 9450 950  0    60   ~ 0
PWR Indicator
$Comp
L +3V3 #PWR30
U 1 1 5A4F1E9A
P 10000 1200
F 0 "#PWR30" H 10000 1050 50  0001 C CNN
F 1 "+3V3" H 10000 1340 50  0000 C CNN
F 2 "" H 10000 1200 50  0001 C CNN
F 3 "" H 10000 1200 50  0001 C CNN
	1    10000 1200
	1    0    0    -1  
$EndComp
$Comp
L +3V3 #PWR31
U 1 1 5A4F20E8
P 10000 2000
F 0 "#PWR31" H 10000 1850 50  0001 C CNN
F 1 "+3V3" H 10000 2140 50  0000 C CNN
F 2 "" H 10000 2000 50  0001 C CNN
F 3 "" H 10000 2000 50  0001 C CNN
	1    10000 2000
	1    0    0    -1  
$EndComp
$Comp
L VCC #PWR32
U 1 1 5A4F2588
P 10000 2750
F 0 "#PWR32" H 10000 2600 50  0001 C CNN
F 1 "VCC" H 10017 2923 50  0000 C CNN
F 2 "" H 10000 2750 50  0001 C CNN
F 3 "" H 10000 2750 50  0001 C CNN
	1    10000 2750
	1    0    0    -1  
$EndComp
$Comp
L VCC #PWR33
U 1 1 5A4F2815
P 10000 3550
F 0 "#PWR33" H 10000 3400 50  0001 C CNN
F 1 "VCC" H 10017 3723 50  0000 C CNN
F 2 "" H 10000 3550 50  0001 C CNN
F 3 "" H 10000 3550 50  0001 C CNN
	1    10000 3550
	1    0    0    -1  
$EndComp
$Comp
L GND #PWR34
U 1 1 5A4F3375
P 10050 1450
F 0 "#PWR34" H 10050 1200 50  0001 C CNN
F 1 "GND" H 10055 1277 50  0000 C CNN
F 2 "" H 10050 1450 50  0001 C CNN
F 3 "" H 10050 1450 50  0001 C CNN
	1    10050 1450
	0    1    1    0   
$EndComp
$Comp
L GND #PWR35
U 1 1 5A4F33F5
P 10050 2250
F 0 "#PWR35" H 10050 2000 50  0001 C CNN
F 1 "GND" H 10055 2077 50  0000 C CNN
F 2 "" H 10050 2250 50  0001 C CNN
F 3 "" H 10050 2250 50  0001 C CNN
	1    10050 2250
	0    1    1    0   
$EndComp
$Comp
L GND #PWR36
U 1 1 5A4F3475
P 10050 3000
F 0 "#PWR36" H 10050 2750 50  0001 C CNN
F 1 "GND" H 10055 2827 50  0000 C CNN
F 2 "" H 10050 3000 50  0001 C CNN
F 3 "" H 10050 3000 50  0001 C CNN
	1    10050 3000
	0    1    1    0   
$EndComp
$Comp
L GND #PWR37
U 1 1 5A4F34F5
P 10050 3800
F 0 "#PWR37" H 10050 3550 50  0001 C CNN
F 1 "GND" H 10055 3627 50  0000 C CNN
F 2 "" H 10050 3800 50  0001 C CNN
F 3 "" H 10050 3800 50  0001 C CNN
	1    10050 3800
	0    1    1    0   
$EndComp
Wire Wire Line
	3400 3100 5350 3100
Wire Wire Line
	5350 3100 5500 3100
Wire Wire Line
	4850 3500 5350 3500
Wire Wire Line
	5350 3500 5500 3500
Connection ~ 5350 3100
Connection ~ 5350 3500
Wire Wire Line
	5950 3100 5700 3100
Wire Wire Line
	5950 3100 5950 3500
Wire Wire Line
	5950 3500 5950 3600
Wire Wire Line
	5950 3500 5700 3500
Connection ~ 5950 3500
Wire Wire Line
	6400 1250 6400 1250
Wire Wire Line
	6500 1250 6500 1250
Wire Wire Line
	6600 1250 6600 1350
Wire Wire Line
	7100 1250 7100 1250
Wire Wire Line
	7200 1250 7200 1250
Wire Wire Line
	7850 1250 7850 1250
Wire Wire Line
	7950 1250 7950 1250
Wire Wire Line
	8650 1250 8650 1250
Wire Wire Line
	8750 1250 8750 1250
Wire Wire Line
	7300 1250 7300 1350
Wire Wire Line
	8050 1250 8050 1350
Wire Wire Line
	3400 4100 4750 4100
Wire Wire Line
	3400 4200 4750 4200
Wire Wire Line
	4400 3950 4350 3950
Wire Wire Line
	3400 3950 4000 3950
Wire Wire Line
	4000 3950 4050 3950
Wire Wire Line
	5750 6900 5750 7000
Wire Wire Line
	5750 7000 5750 7100
Wire Wire Line
	6950 7000 6950 7100
Wire Wire Line
	5750 6500 5750 6600
Wire Wire Line
	5750 7400 5750 7500
Wire Wire Line
	5750 7000 5050 7000
Connection ~ 5750 7000
Wire Wire Line
	6400 6550 6400 6650
Wire Wire Line
	6400 7500 6400 7400
Wire Wire Line
	6400 7100 6400 6950
Wire Notes Line
	4900 6150 4900 7750
Wire Notes Line
	4900 7750 6050 7750
Wire Notes Line
	6050 7750 6050 6150
Wire Notes Line
	6050 6150 4900 6150
Wire Notes Line
	6150 6150 6150 7750
Wire Notes Line
	6150 7750 6900 7750
Wire Notes Line
	6900 7750 6900 6150
Wire Notes Line
	6900 6150 6150 6150
Wire Wire Line
	10350 5950 10900 5950
Wire Wire Line
	10350 6050 10900 6050
Wire Wire Line
	10350 6150 10900 6150
Wire Wire Line
	9600 5950 10100 5950
Wire Wire Line
	9600 6050 10100 6050
Wire Wire Line
	9600 6150 10100 6150
Wire Notes Line
	6150 800  6150 1600
Wire Notes Line
	6150 1600 9200 1600
Wire Notes Line
	9200 1600 9200 800 
Wire Notes Line
	9200 800  6150 800 
Wire Notes Line
	9400 800  9400 3950
Wire Notes Line
	9400 3950 11150 3950
Wire Notes Line
	11150 3950 11150 800 
Wire Notes Line
	11150 800  9400 800 
Wire Wire Line
	8850 1350 8850 1250
Wire Wire Line
	3400 3200 4850 3200
Wire Wire Line
	4850 3200 4850 3500
Wire Wire Line
	1500 4600 1400 4600
Wire Wire Line
	1400 4600 1400 4700
Wire Wire Line
	1400 4700 1400 4800
Wire Wire Line
	1400 4800 1400 4950
Wire Wire Line
	1500 4700 1400 4700
Connection ~ 1400 4700
Wire Wire Line
	1500 4800 1400 4800
Connection ~ 1400 4800
Wire Wire Line
	1350 2800 1500 2800
Wire Wire Line
	1350 2600 1500 2600
Connection ~ 1350 2600
Wire Wire Line
	1500 2500 1350 2500
Connection ~ 1350 2500
Wire Wire Line
	1500 3850 850  3850
Wire Wire Line
	3400 3000 4100 3000
Wire Wire Line
	4100 3000 4100 2300
Wire Wire Line
	4100 2300 4450 2300
Wire Wire Line
	3400 2800 4150 2800
Wire Wire Line
	4150 2800 4150 2400
Wire Wire Line
	4150 2400 4450 2400
Wire Wire Line
	3400 2900 4200 2900
Wire Wire Line
	4200 2900 4200 2500
Wire Wire Line
	4200 2500 4450 2500
Wire Wire Line
	4000 2700 4000 2700
Wire Wire Line
	4000 2700 3400 2700
Wire Wire Line
	3400 2600 4000 2600
Wire Wire Line
	4000 2600 4450 2600
Wire Wire Line
	4450 2700 4000 2700
Wire Wire Line
	5450 2300 5550 2300
Wire Wire Line
	5550 2300 5550 2200
Wire Wire Line
	5450 2700 5550 2700
Wire Wire Line
	3400 4600 3650 4600
Wire Wire Line
	3650 4700 3400 4700
Wire Wire Line
	3400 4800 3650 4800
Wire Wire Line
	3400 2500 3600 2500
Wire Wire Line
	1200 3100 1500 3100
Wire Notes Line
	3600 7750 4800 7750
Wire Notes Line
	4800 7750 4800 6600
Wire Notes Line
	4800 6600 3600 6600
Wire Notes Line
	3600 6600 3600 7750
Wire Notes Line
	7200 1700 9200 1700
Wire Notes Line
	9200 1700 9200 4750
Wire Notes Line
	9200 4750 7200 4750
Wire Notes Line
	7200 4750 7200 1700
Wire Wire Line
	8050 2350 7950 2350
Wire Wire Line
	7950 2800 8050 2800
Wire Wire Line
	8050 3250 7950 3250
Wire Wire Line
	7950 3700 8050 3700
Wire Wire Line
	8050 4100 7950 4100
Wire Wire Line
	8050 4550 7950 4550
Wire Wire Line
	8050 2150 7550 2150
Wire Wire Line
	8050 2600 7550 2600
Wire Wire Line
	8050 3050 7550 3050
Wire Wire Line
	8050 3500 7550 3500
Wire Wire Line
	8050 3900 7550 3900
Wire Wire Line
	8050 4350 7550 4350
Wire Wire Line
	3400 4300 3850 4300
Wire Wire Line
	3400 4400 3850 4400
Wire Wire Line
	3400 4500 3850 4500
Wire Wire Line
	2600 7050 2600 7150
Wire Wire Line
	2600 7150 2600 7250
Wire Wire Line
	2600 7250 2600 7300
Wire Wire Line
	1650 6750 1900 6750
Wire Wire Line
	1900 6750 2300 6750
Wire Wire Line
	1900 6900 1900 6750
Connection ~ 1900 6750
Wire Wire Line
	1900 7100 1900 7150
Wire Wire Line
	1900 7150 2600 7150
Connection ~ 2600 7150
Wire Wire Line
	2600 7250 3050 7250
Wire Wire Line
	3050 7250 3050 7150
Connection ~ 2600 7250
Wire Wire Line
	3050 6950 3050 6750
Wire Wire Line
	2900 6750 3050 6750
Wire Wire Line
	3050 6750 3300 6750
Connection ~ 3050 6750
Wire Wire Line
	1650 6650 1650 6750
Wire Wire Line
	3300 6750 3300 6650
Wire Wire Line
	1200 3050 1200 3100
Wire Wire Line
	1350 2400 1350 2500
Wire Wire Line
	1350 2500 1350 2600
Wire Wire Line
	1350 2600 1350 2800
Wire Notes Line
	3500 6150 1500 6150
Wire Notes Line
	1500 6150 1500 7750
Wire Notes Line
	1500 7750 3500 7750
Wire Notes Line
	3500 7750 3500 6150
Wire Wire Line
	10000 1200 10000 1250
Wire Wire Line
	10000 1250 10150 1250
Wire Wire Line
	10000 2000 10000 2050
Wire Wire Line
	10000 2050 10150 2050
Wire Wire Line
	10000 2750 10000 2800
Wire Wire Line
	10000 2800 10150 2800
Wire Wire Line
	10000 3550 10000 3600
Wire Wire Line
	10000 3600 10150 3600
Wire Wire Line
	10050 3000 10150 3000
Wire Wire Line
	10050 1450 10150 1450
Wire Wire Line
	10050 2250 10150 2250
Wire Wire Line
	10050 3800 10150 3800
Wire Wire Line
	5350 3150 5350 3100
Wire Wire Line
	5350 3500 5350 3450
Text Label 3450 2900 0    60   ~ 0
MISO
Text Label 3450 3000 0    60   ~ 0
SCK
Text Label 3450 2800 0    60   ~ 0
MOSI
Text Label 9600 5950 0    60   ~ 0
MISO
Text Label 10700 6050 0    60   ~ 0
MOSI
Text Label 9600 6050 0    60   ~ 0
SCK
$Comp
L GND #PWR39
U 1 1 5A4F85D4
P 10900 6200
F 0 "#PWR39" H 10900 5950 50  0001 C CNN
F 1 "GND" H 10900 6050 50  0000 C CNN
F 2 "" H 10900 6200 50  0001 C CNN
F 3 "" H 10900 6200 50  0001 C CNN
	1    10900 6200
	1    0    0    -1  
$EndComp
Wire Wire Line
	10900 6150 10900 6200
$Comp
L VCC #PWR38
U 1 1 5A4F89D4
P 10900 5900
F 0 "#PWR38" H 10900 5750 50  0001 C CNN
F 1 "VCC" H 10917 6073 50  0000 C CNN
F 2 "" H 10900 5900 50  0001 C CNN
F 3 "" H 10900 5900 50  0001 C CNN
	1    10900 5900
	1    0    0    -1  
$EndComp
Wire Wire Line
	10900 5950 10900 5900
NoConn ~ 5450 2500
$Comp
L Conn_01x01 J4
U 1 1 5A4F9D41
P 3950 6900
F 0 "J4" H 3950 7000 50  0000 C CNN
F 1 "GY_Mnt_1" H 3900 6800 50  0000 C CNN
F 2 "" H 3950 6900 50  0001 C CNN
F 3 "" H 3950 6900 50  0001 C CNN
	1    3950 6900
	1    0    0    -1  
$EndComp
$Comp
L Conn_01x01 J9
U 1 1 5A4F9DD3
P 4550 6900
F 0 "J9" H 4550 7000 50  0000 C CNN
F 1 "GY_Mnt_2" H 4550 6800 50  0000 C CNN
F 2 "" H 4550 6900 50  0001 C CNN
F 3 "" H 4550 6900 50  0001 C CNN
	1    4550 6900
	1    0    0    -1  
$EndComp
NoConn ~ 3400 3450
NoConn ~ 3400 3550
NoConn ~ 3400 3650
NoConn ~ 3400 3750
NoConn ~ 3400 3850
Wire Notes Line
	11100 5550 9450 5550
Wire Notes Line
	9450 5550 9450 6450
Wire Notes Line
	9450 6450 11100 6450
Wire Notes Line
	11100 6450 11100 5550
Wire Wire Line
	800  6500 800  6750
Wire Wire Line
	800  6750 950  6750
Wire Wire Line
	950  6950 800  6950
$Comp
L GND #PWR1
U 1 1 5A4FD0E5
P 800 7450
F 0 "#PWR1" H 800 7200 50  0001 C CNN
F 1 "GND" H 805 7277 50  0000 C CNN
F 2 "" H 800 7450 50  0001 C CNN
F 3 "" H 800 7450 50  0001 C CNN
	1    800  7450
	-1   0    0    -1  
$EndComp
Wire Notes Line
	1400 6150 1400 7750
Wire Notes Line
	1400 7750 600  7750
Wire Notes Line
	600  7750 600  6150
Wire Notes Line
	600  6150 1400 6150
$Comp
L R R7
U 1 1 5A4FD8FF
P 800 7200
F 0 "R7" V 880 7200 50  0000 C CNN
F 1 "R" V 800 7200 50  0000 C CNN
F 2 "" V 730 7200 50  0001 C CNN
F 3 "" H 800 7200 50  0001 C CNN
	1    800  7200
	1    0    0    -1  
$EndComp
Wire Wire Line
	800  7450 800  7350
Wire Wire Line
	800  6950 800  7050
Wire Wire Line
	3400 3350 3700 3350
Text Label 3450 3350 0    60   ~ 0
BUZZ
Wire Wire Line
	800  6500 1050 6500
Text Label 800  6500 0    60   ~ 0
BUZZ
Wire Wire Line
	4000 3950 4000 4300
Wire Wire Line
	4000 4300 4750 4300
Connection ~ 4000 3950
Text Label 3500 3950 0    60   ~ 0
RESET
Text Label 9600 6150 0    60   ~ 0
RESET
$EndSCHEMATC
