EESchema Schematic File Version 2
LIBS:flightController-rescue
LIBS:power
LIBS:device
LIBS:transistors
LIBS:conn
LIBS:linear
LIBS:regul
LIBS:74xx
LIBS:cmos4000
LIBS:adc-dac
LIBS:memory
LIBS:xilinx
LIBS:microcontrollers
LIBS:dsp
LIBS:microchip
LIBS:analog_switches
LIBS:motorola
LIBS:texas
LIBS:intel
LIBS:audio
LIBS:interface
LIBS:digital-audio
LIBS:philips
LIBS:display
LIBS:cypress
LIBS:siliconi
LIBS:opto
LIBS:atmel
LIBS:contrib
LIBS:valves
LIBS:arduino
LIBS:atmega328
LIBS:ch34x
LIBS:tba_libs
LIBS:flightController-cache
EELAYER 25 0
EELAYER END
$Descr A4 11693 8268
encoding utf-8
Sheet 2 2
Title "Red Baron Flight Controller"
Date ""
Rev "1"
Comp ""
Comment1 ""
Comment2 ""
Comment3 ""
Comment4 ""
$EndDescr
$Comp
L CH340G U3
U 1 1 5A1FAD87
P 6200 3250
F 0 "U3" H 6200 3847 60  0000 C CNN
F 1 "CH340G" H 6200 3741 60  0000 C CNN
F 2 "" H 6300 3050 60  0000 C CNN
F 3 "" H 6300 3050 60  0000 C CNN
	1    6200 3250
	1    0    0    -1  
$EndComp
$Comp
L VCC #PWR44
U 1 1 5A1FAD8E
P 6700 2800
F 0 "#PWR44" H 6700 2650 50  0001 C CNN
F 1 "VCC" H 6717 2973 50  0000 C CNN
F 2 "" H 6700 2800 50  0001 C CNN
F 3 "" H 6700 2800 50  0001 C CNN
	1    6700 2800
	1    0    0    -1  
$EndComp
Wire Wire Line
	6650 2900 6700 2900
Wire Wire Line
	6700 2900 6700 2800
$Comp
L USB_B_Micro J7
U 1 1 5A1FAD9E
P 4350 3300
F 0 "J7" H 4405 3767 50  0000 C CNN
F 1 "USB_B_Micro" H 4405 3676 50  0000 C CNN
F 2 "" H 4500 3250 50  0001 C CNN
F 3 "" H 4500 3250 50  0001 C CNN
	1    4350 3300
	1    0    0    -1  
$EndComp
Wire Wire Line
	4650 3300 5750 3300
Wire Wire Line
	5750 3400 4650 3400
$Comp
L GND #PWR40
U 1 1 5A1FADA7
P 4350 3800
F 0 "#PWR40" H 4350 3550 50  0001 C CNN
F 1 "GND" H 4355 3627 50  0000 C CNN
F 2 "" H 4350 3800 50  0001 C CNN
F 3 "" H 4350 3800 50  0001 C CNN
	1    4350 3800
	1    0    0    -1  
$EndComp
Wire Wire Line
	4250 3700 4250 3750
Wire Wire Line
	4250 3750 4350 3750
Wire Wire Line
	4350 3700 4350 3800
Connection ~ 4350 3750
$Comp
L VCC #PWR41
U 1 1 5A1FADB1
P 4750 2950
F 0 "#PWR41" H 4750 2800 50  0001 C CNN
F 1 "VCC" H 4767 3123 50  0000 C CNN
F 2 "" H 4750 2950 50  0001 C CNN
F 3 "" H 4750 2950 50  0001 C CNN
	1    4750 2950
	1    0    0    -1  
$EndComp
Wire Wire Line
	4650 3100 4750 3100
Wire Wire Line
	4750 3100 4750 2950
NoConn ~ 6650 3000
NoConn ~ 6650 3100
NoConn ~ 6650 3600
NoConn ~ 6650 3500
NoConn ~ 6650 3400
NoConn ~ 6650 3300
$Comp
L Crystal_Small Y2
U 1 1 5A1FADC0
P 5550 3700
F 0 "Y2" H 5550 3925 50  0000 C CNN
F 1 "12MHz" H 5550 3834 50  0000 C CNN
F 2 "" H 5550 3700 50  0001 C CNN
F 3 "" H 5550 3700 50  0001 C CNN
	1    5550 3700
	1    0    0    -1  
$EndComp
Wire Wire Line
	5750 3500 5400 3500
Wire Wire Line
	5400 3500 5400 3800
Wire Wire Line
	5400 3700 5450 3700
Wire Wire Line
	5750 3600 5700 3600
Wire Wire Line
	5700 3600 5700 3800
Wire Wire Line
	5700 3700 5650 3700
$Comp
L C_Small C3
U 1 1 5A1FADCD
P 5400 3900
F 0 "C3" H 5250 4000 50  0000 L CNN
F 1 "22pF" H 5150 3850 50  0000 L CNN
F 2 "" H 5400 3900 50  0001 C CNN
F 3 "" H 5400 3900 50  0001 C CNN
	1    5400 3900
	1    0    0    -1  
$EndComp
$Comp
L C_Small C4
U 1 1 5A1FADD4
P 5700 3900
F 0 "C4" H 5800 3950 50  0000 L CNN
F 1 "22pF" H 5792 3855 50  0000 L CNN
F 2 "" H 5700 3900 50  0001 C CNN
F 3 "" H 5700 3900 50  0001 C CNN
	1    5700 3900
	1    0    0    -1  
$EndComp
Connection ~ 5400 3700
Connection ~ 5700 3700
Wire Wire Line
	5400 4000 5400 4050
Wire Wire Line
	5400 4050 5700 4050
Wire Wire Line
	5700 4050 5700 4000
$Comp
L GND #PWR42
U 1 1 5A1FADE0
P 5550 4100
F 0 "#PWR42" H 5550 3850 50  0001 C CNN
F 1 "GND" H 5555 3927 50  0000 C CNN
F 2 "" H 5550 4100 50  0001 C CNN
F 3 "" H 5550 4100 50  0001 C CNN
	1    5550 4100
	1    0    0    -1  
$EndComp
Wire Wire Line
	5550 4050 5550 4100
Connection ~ 5550 4050
Wire Wire Line
	5350 3000 5750 3000
Wire Wire Line
	6650 3200 7000 3200
Text HLabel 4100 2200 0    60   Input ~ 0
TX
Text HLabel 4100 2350 0    60   Output ~ 0
RX
Text HLabel 4100 2500 0    60   Output ~ 0
DTR
Wire Wire Line
	5350 2200 5350 3000
Wire Wire Line
	4650 2200 5350 2200
Wire Wire Line
	4450 2200 4100 2200
Wire Wire Line
	5250 3100 5250 2350
Wire Wire Line
	5250 2350 4650 2350
Wire Wire Line
	4450 2350 4100 2350
Wire Wire Line
	7000 3200 7000 2500
$Comp
L GND #PWR43
U 1 1 5A1FB221
P 5650 2900
F 0 "#PWR43" H 5650 2650 50  0001 C CNN
F 1 "GND" H 5655 2727 50  0000 C CNN
F 2 "" H 5650 2900 50  0001 C CNN
F 3 "" H 5650 2900 50  0001 C CNN
	1    5650 2900
	0    1    1    0   
$EndComp
Wire Wire Line
	5750 2900 5650 2900
$Comp
L C_Small C5
U 1 1 5A1FB4EE
P 7900 3150
F 0 "C5" H 7750 3250 50  0000 L CNN
F 1 "0.1uF" H 8000 3250 50  0000 L CNN
F 2 "" H 7900 3150 50  0001 C CNN
F 3 "" H 7900 3150 50  0001 C CNN
	1    7900 3150
	1    0    0    -1  
$EndComp
$Comp
L VCC #PWR45
U 1 1 5A1FB5FC
P 7900 2900
F 0 "#PWR45" H 7900 2750 50  0001 C CNN
F 1 "VCC" H 7917 3073 50  0000 C CNN
F 2 "" H 7900 2900 50  0001 C CNN
F 3 "" H 7900 2900 50  0001 C CNN
	1    7900 2900
	1    0    0    -1  
$EndComp
$Comp
L GND #PWR46
U 1 1 5A1FB613
P 7900 3400
F 0 "#PWR46" H 7900 3150 50  0001 C CNN
F 1 "GND" H 7905 3227 50  0000 C CNN
F 2 "" H 7900 3400 50  0001 C CNN
F 3 "" H 7900 3400 50  0001 C CNN
	1    7900 3400
	1    0    0    -1  
$EndComp
Wire Wire Line
	7900 2900 7900 3050
Wire Wire Line
	7900 3250 7900 3400
Wire Wire Line
	5250 3100 5750 3100
NoConn ~ 5750 3200
$Comp
L R_Small R5
U 1 1 5A1FF76C
P 4550 2200
F 0 "R5" V 4500 2100 50  0000 C CNN
F 1 "1K" V 4600 2350 50  0000 C CNN
F 2 "" H 4550 2200 50  0001 C CNN
F 3 "" H 4550 2200 50  0001 C CNN
	1    4550 2200
	0    1    1    0   
$EndComp
$Comp
L R_Small R6
U 1 1 5A1FFA5F
P 4550 2350
F 0 "R6" V 4500 2250 50  0000 C CNN
F 1 "1K" V 4600 2500 50  0000 C CNN
F 2 "" H 4550 2350 50  0001 C CNN
F 3 "" H 4550 2350 50  0001 C CNN
	1    4550 2350
	0    1    1    0   
$EndComp
Text Notes 2800 2550 0    60   ~ 0
Data Terminal Ready
$Comp
L C_Small C8
U 1 1 5A4FF3FA
P 5750 2500
F 0 "C8" H 5760 2570 50  0000 L CNN
F 1 "C_Small" H 5760 2420 50  0000 L CNN
F 2 "" H 5750 2500 50  0001 C CNN
F 3 "" H 5750 2500 50  0001 C CNN
	1    5750 2500
	0    -1   -1   0   
$EndComp
Wire Wire Line
	4100 2500 5650 2500
Wire Wire Line
	7000 2500 5850 2500
$EndSCHEMATC
